<?xml version="1.0" encoding="UTF-8"?>
<svg width="256" height="256" version="1.1" viewBox="0 0 256 256" xmlns="http://www.w3.org/2000/svg">
<title>mstache</title>
<g transform="matrix(3.7795 0 0 3.7795 -6.8768e-8 1.2682e-6)">
<path d="m64.888 39.337a31.5 31.5 0 01-35.133 25.761 31.5 31.5 0 01-27.269-33.976 31.5 31.5 0 0132.754-28.725 31.5 31.5 0 0130.126 31.47" fill="#fff" stop-color="#000000" stroke-linejoin="round" stroke-width="9.8816" style="-inkscape-stroke:none"/>
<path transform="scale(.26458)" d="m128 8c-66.274 0-120 53.726-120 120s53.726 120 120 120 120-53.726 120-120-53.726-120-120-120zm-42.176 41.932c1.5867 0 13.409-16.325 42.176-16.325s40.616 16.352 42.176 16.325c1.5602-.02712 6.4847.2706 9.0742.74023s5.0926 1.1766 7.5566 2.2168c2.5188.98561 4.9015 2.2734 7.1465 3.8613 2.2997 1.5879 4.326 3.5031 6.0781 5.748 1.7521 2.245 3.1471 4.8187 4.1875 7.7207 1.0402 2.902 1.5606 6.1888 1.5606 9.8574l-.16407 28.746c0 2.902.73836 5.0647 2.2168 6.4883 1.5332 1.4236 3.6977 2.1348 6.4902 2.1348 1.4784 0 2.846.27473 4.1055.82227 1.3141.60231 2.4363 1.3679 3.3672 2.2988.98564.98559 1.7532 2.1351 2.3008 3.4492.54752 1.3141.82032 2.711.82032 4.1895h.002c0 1.4784-.27473 2.848-.82227 4.1074-.54752 1.3141-1.3133 2.4363-2.2988 3.3672-.93085.98548-2.0531 1.7513-3.3672 2.2988-1.2594.60189-2.629.93069-4.1074.98632-2.9568 0-5.1467.71116-6.5703 2.1348-1.4236 1.4784-2.1348 3.6137-2.1348 6.4062 0 9.3632-.0283 16.428-.084 21.191-.0559 4.8185-.082 7.4195-.082 7.8027 0 4.4352-.90402 8.4604-2.7109 12.074-1.8069 3.6686-4.2696 6.7878-7.3906 9.3613-3.0663 2.6283-6.6259 4.6272-10.678 5.9961-4.0519 1.4236-8.2953 2.1367-12.73 2.1367h-10.76v-21.355h10.76c.71181 0 2.764-.1363 4.1055-.41016s2.6022-.73944 3.6973-1.3965 1.9267-1.3422 2.709-2.5469c.78225-1.2047 1.4527-3.364 1.5606-4.0234s0-28.83 0-28.83c0-4.2162.604-7.9393 1.8086-11.17 1.2594-3.1758 2.8472-5.9404 4.7637-8.2949-2.1902-2.9568-3.8072-6.1325-4.8477-9.5274-.98557-3.3948-1.4766-6.5706-1.4766-9.5273v-29.076c0-1.9164-.49294-3.4497-1.4785-4.5996-.98559-1.0952-2.1643-1.9427-3.5332-2.5449-1.1088-.46196-2.2373-.77951-3.3848-.96875 0 0-25.301 14.781-47.865 14.781-22.558-8e-6-47.854-14.77-47.854-14.77-1.1328.19077-2.2657.50397-3.3984.95703-1.3689.60232-2.5457 1.4498-3.5312 2.5449-.98558 1.1499-1.4785 2.6832-1.4785 4.5996v29.076c0 2.9568-.49294 6.1325-1.4785 9.5273-.93085 3.3948-2.546 6.5705-4.8457 9.5274 1.9164 2.3545 3.4771 5.1191 4.6816 8.2949 1.2046 3.2306 1.8066 6.9538 1.8066 11.17v28.994c0 1.4784.38383 2.7369 1.1504 3.7773.76658 1.0404 1.7524 1.8898 2.957 2.5469 1.2046.65705 2.5178 1.1226 3.9414 1.3965 1.4784.32854 2.9026.49219 4.2715.49219h10.596v21.355h-10.596c-4.2162 0-8.3504-.65856-12.402-1.9727-3.9971-1.3141-7.5839-3.2293-10.76-5.748-3.1758-2.5188-5.7222-5.6126-7.6387-9.2812-1.9164-3.6686-2.875-7.8574-2.875-12.566v-28.994c0-2.7925-.73836-4.9278-2.2168-6.4062-1.4784-1.4236-3.6956-2.1348-6.6523-2.1348-1.4784-.0548-2.8754-.38411-4.1895-.98632-1.2593-.54753-2.3816-1.3133-3.3672-2.2988-.93083-.93084-1.6693-2.0531-2.2168-3.3672-.54753-1.2594-.82227-2.629-.82227-4.1074s.27472-2.8754.82227-4.1895c.54756-1.3141 1.2859-2.4636 2.2168-3.4492.98559-.93081 2.1351-1.6966 3.4492-2.2988 1.3141-.54754 2.7384-.82227 4.2715-.82227 2.683 0 4.7637-.71115 6.2422-2.1348 1.5332-1.4236 2.2988-3.5862 2.2988-6.4883v-28.746c1e-6-3.6686.49294-6.9554 1.4785-9.8574 1.0404-2.902 2.41-5.4757 4.1074-7.7207 1.7522-2.245 3.7511-4.1601 5.9961-5.748 2.2997-1.5879 4.6805-2.8758 7.1445-3.8613 2.5188-1.0403 4.6453-1.6894 7.5566-2.2168s7.5715-.74023 9.1582-.74023z" stop-color="#000000" style="paint-order:markers fill stroke"/>
<path d="m30.281 33.778-3.9268 4.0399.72662 2.262h13.571l.72703-2.262-3.9272-4.0399z" fill="#fff" stop-color="#000000" stroke-linejoin="round" stroke-width="2.6458" style="-inkscape-stroke:none"/>
</g>
</svg>
